Station  Lat(+N,deg)  Lon(+E,deg)  E-Amp(mm)  E-Pha(deg)  N-Amp(mm)  N-Pha(deg)  V-Amp(mm)  V-Pha(deg) 
T001a_      89.99      0.0      0.0      0.0      0.01179722      0.0      92.03544002      180.0
T001b_      89.0      0.0      0.0      180.0      1.18084786      0.0      91.5698587      180.0
T001c_      88.0      0.0      0.0      180.0      2.37608673      0.0      90.18927569      180.0
T001d_      87.0      0.0      0.0      180.0      3.599189      0.0      87.80517898      180.0
T001e_      86.0      0.0      0.0      180.0      4.86611338      0.0      84.24916976      180.0
T001f_      85.0      0.0      0.0      180.0      6.19686078      0.0      79.08157156      180.0
T001g_      84.0      0.0      0.0      180.0      7.22328179      0.0      71.45237106      180.0
T001h_      83.0      0.0      0.0      180.0      7.63641333      0.0      62.72356133      180.0
T001i_      82.0      0.0      0.0      180.0      7.50406152      0.0      53.73294022      180.0
T001j_      81.0      0.0      0.0      180.0      6.85587757      0.0      45.09834921      180.0
T001k_      80.9      0.0      0.0      180.0      6.76301861      0.0      44.2810192      180.0
T001l_      80.8      0.0      0.0      180.0      6.66518452      0.0      43.47521551      180.0
T001m_      80.7      0.0      0.0      180.0      6.56229652      0.0      42.68195097      180.0
T001n_      80.6      0.0      0.0      180.0      6.45422775      0.0      41.90227187      180.0
T001o_      80.5      0.0      0.0      180.0      6.34107157      0.0      41.13743136      180.0
T001p_      80.4      0.0      0.0      180.0      6.22277124      0.0      40.38959826      180.0
T001q_      80.3      0.0      0.0      180.0      6.09932751      0.0      39.66105653      180.0
T001r_      80.2      0.0      0.0      180.0      5.97069808      0.0      38.95398992      180.0
T001s_      80.1      0.0      0.0      0.0      5.83675299      0.0      38.27172078      180.0
T002a_      80.0      0.0      0.0      180.0      5.69769877      0.0      37.62110058      180.0
T002b_      79.0      0.0      0.0      180.0      4.42147321      0.0      32.50002678      180.0
T002c_      78.0      0.0      0.0      180.0      3.37395131      0.0      28.6797238      180.0
T002d_      77.0      0.0      0.0      180.0      2.49850892      0.0      25.62188263      180.0
T002e_      76.0      0.0      0.0      180.0      1.75678973      0.0      23.09002386      180.0
T002f_      75.0      0.0      0.0      180.0      1.12155697      0.0      20.94620793      180.0
T002g_      74.0      0.0      0.0      180.0      0.57233546      0.0      19.09838375      180.0
T002h_      73.0      0.0      0.0      180.0      0.09409598      0.0      17.48497294      180.0
T002i_      72.0      0.0      0.0      180.0      0.3248764      180.0      16.06064681      180.0
T002j_      71.0      0.0      0.0      0.0      0.69377787      180.0      14.79143523      180.0
T003a_      70.0      0.0      0.0      0.0      1.02003728      180.0      13.65078391      180.0
T003b_      69.0      0.0      0.0      0.0      1.30911871      180.0      12.62068266      180.0
T003c_      68.0      0.0      0.0      0.0      1.56604656      180.0      11.683661      180.0
T003d_      67.0      0.0      0.0      0.0      1.79477888      180.0      10.82670949      180.0
T003e_      66.0      0.0      0.0      0.0      1.9986136      180.0      10.03921604      180.0
T003f_      65.0      0.0      0.0      0.0      2.18031577      180.0      9.31241562      180.0
T003g_      64.0      0.0      0.0      0.0      2.34222518      180.0      8.63899313      180.0
T003h_      63.0      0.0      0.0      0.0      2.48634136      180.0      8.01282753      180.0
T003i_      62.0      0.0      0.0      0.0      2.61437715      180.0      7.42871467      180.0
T003j_      61.0      0.0      0.0      0.0      2.72781166      180.0      6.88221477      180.0
T004a_      60.0      0.0      0.0      0.0      2.82793022      180.0      6.36952663      180.0
T004b_      59.0      0.0      0.0      0.0      2.91586092      180.0      5.88737672      180.0
T004c_      58.0      0.0      0.0      0.0      2.99258683      180.0      5.4329132      180.0
T004d_      59.0      0.0      0.0      0.0      2.91586092      180.0      5.88737672      180.0
T004e_      56.0      0.0      0.0      0.0      3.11580417      180.0      4.59739495      180.0
T004f_      55.0      0.0      0.0      0.0      3.1637611      180.0      4.21226167      180.0
T004g_      54.0      0.0      0.0      0.0      3.20345831      180.0      3.84655546      180.0
T004h_      53.0      0.0      0.0      0.0      3.23544266      180.0      3.4987759      180.0
T004i_      52.0      0.0      0.0      0.0      3.26021992      180.0      3.16759437      180.0
T004j_      51.0      0.0      0.0      0.0      3.27823466      180.0      2.85182235      180.0
T005a_      50.0      0.0      0.0      0.0      3.28990323      180.0      2.55041512      180.0
T005b_      49.0      0.0      0.0      0.0      3.29558669      180.0      2.26240858      180.0
T005c_      48.0      0.0      0.0      0.0      3.2956272      180.0      1.98695811      180.0
T005d_      47.0      0.0      0.0      0.0      3.29034675      180.0      1.72329601      180.0
T005e_      46.0      0.0      0.0      0.0      3.28002108      180.0      1.47071772      180.0
T005f_      45.0      0.0      0.0      0.0      3.26490983      180.0      1.22860472      180.0
T005g_      44.0      0.0      0.0      0.0      3.24527809      180.0      0.99639037      180.0
T005h_      43.0      0.0      0.0      0.0      3.22133495      180.0      0.77353515      180.0
T005i_      42.0      0.0      0.0      0.0      3.19330552      180.0      0.55959457      180.0
T005j_      41.0      0.0      0.0      0.0      3.16137784      180.0      0.35414152      180.0
T006a_      40.0      0.0      0.0      0.0      3.12573177      180.0      0.15676834      180.0
T006b_      39.0      0.0      0.0      0.0      3.08656157      180.0      0.03287235      0.0
T006c_      38.0      0.0      0.0      0.0      3.04401079      180.0      0.21511134      0.0
T006d_      37.0      0.0      0.0      0.0      2.99823412      180.0      0.39024      0.0
T006e_      36.0      0.0      0.0      0.0      2.94938484      180.0      0.55854866      0.0
T006f_      35.0      0.0      0.0      0.0      2.89759888      180.0      0.72027758      0.0
T006g_      34.0      0.0      0.0      0.0      2.84300984      180.0      0.87565669      0.0
T006h_      33.0      0.0      0.0      0.0      2.78572833      180.0      1.02490681      0.0
T006i_      32.0      0.0      0.0      0.0      2.72589747      180.0      1.1682186      0.0
T006j_      31.0      0.0      0.0      0.0      2.66361793      180.0      1.30577966      0.0
T007a_      30.0      0.0      0.0      0.0      2.59898791      180.0      1.43774766      0.0
T007b_      29.0      0.0      0.0      0.0      2.53212919      180.0      1.56427594      0.0
T007c_      28.0      0.0      0.0      0.0      2.46313791      180.0      1.68551444      0.0
T007d_      27.0      0.0      0.0      0.0      2.3921081      180.0      1.8015863      0.0
T007e_      26.0      0.0      0.0      0.0      2.3191371      180.0      1.91261483      0.0
T007f_      25.0      0.0      0.0      0.0      2.24431766      180.0      2.01871086      0.0
T007g_      24.0      0.0      0.0      0.0      2.16772972      180.0      2.11998593      0.0
T007h_      23.0      0.0      0.0      0.0      2.08946714      180.0      2.2165232      0.0
T007i_      22.0      0.0      0.0      0.0      2.00961988      180.0      2.30841268      0.0
T007j_      21.0      0.0      0.0      0.0      1.9282521      180.0      2.39573903      0.0
T008a_      20.0      0.0      0.0      0.0      1.84545168      180.0      2.47857746      0.0
T008b_      19.0      0.0      0.0      0.0      1.76130138      180.0      2.55699449      0.0
T008c_      18.0      0.0      0.0      0.0      1.67587714      180.0      2.63105341      0.0
T008d_      17.0      0.0      0.0      0.0      1.58924704      180.0      2.70082159      0.0
T008e_      16.0      0.0      0.0      0.0      1.50149359      180.0      2.76634585      0.0
T008f_      15.0      0.0      0.0      0.0      1.41268166      180.0      2.82767266      0.0
T008g_      14.0      0.0      0.0      0.0      1.3228929      180.0      2.88485437      0.0
T008h_      13.0      0.0      0.0      0.0      1.23218384      180.0      2.93792599      0.0
T008i_      12.0      0.0      0.0      0.0      1.14063102      180.0      2.98693041      0.0
T008j_      11.0      0.0      0.0      0.0      1.04830265      180.0      3.03190765      0.0
T009a_      10.0      0.0      0.0      0.0      0.95525614      180.0      3.0728663      0.0
T009b_      9.0      0.0      0.0      0.0      0.86168072      180.0      3.10979669      0.0
T009c_      8.0      0.0      0.0      0.0      0.76746506      180.0      3.14275894      0.0
T009d_      7.0      0.0      0.0      0.0      0.67270903      180.0      3.17177255      0.0
T009e_      6.0      0.0      0.0      0.0      0.57748818      180.0      3.19686476      0.0
T009f_      5.0      0.0      0.0      0.0      0.48186824      180.0      3.21805419      0.0
T009g_      4.0      0.0      0.0      0.0      0.38584366      180.0      3.23540098      0.0
T009h_      3.0      0.0      0.0      0.0      0.28960172      180.0      3.24889004      0.0
T009i_      2.0      0.0      0.0      0.0      0.19317364      180.0      3.25851562      0.0
T009j_      1.0      0.0      0.0      0.0      0.09661906      180.0      3.26428941      0.0
T010a_      0.0      0.0      0.0      180.0      0.0      0.0      3.26621331      0.0
T010b_      -1.0      0.0      0.0      180.0      0.09661906      0.0      3.26428941      0.0
T010c_      -2.0      0.0      0.0      180.0      0.19317364      0.0      3.25851562      0.0
T010d_      -3.0      0.0      0.0      180.0      0.28960172      0.0      3.24889004      0.0
T010e_      -4.0      0.0      0.0      180.0      0.38584366      0.0      3.23540098      0.0
T010f_      -5.0      0.0      0.0      180.0      0.48186824      0.0      3.21805419      0.0
T010g_      -6.0      0.0      0.0      180.0      0.57748818      0.0      3.19686476      0.0
T010h_      -7.0      0.0      0.0      180.0      0.67270903      0.0      3.17177255      0.0
T010i_      -8.0      0.0      0.0      180.0      0.76746506      0.0      3.14275894      0.0
T010j_      -9.0      0.0      0.0      180.0      0.86168072      0.0      3.10979669      0.0
T011a_      -10.0      0.0      0.0      180.0      0.95525614      0.0      3.0728663      0.0
T011b_      -11.0      0.0      0.0      180.0      1.04830265      0.0      3.03190765      0.0
T011c_      -12.0      0.0      0.0      180.0      1.14063102      0.0      2.98693041      0.0
T011d_      -13.0      0.0      0.0      180.0      1.23218384      0.0      2.93792599      0.0
T011e_      -14.0      0.0      0.0      180.0      1.3228929      0.0      2.88485437      0.0
T011f_      -15.0      0.0      0.0      180.0      1.41268166      0.0      2.82767266      0.0
T011g_      -16.0      0.0      0.0      180.0      1.50149359      0.0      2.76634585      0.0
T011h_      -17.0      0.0      0.0      180.0      1.58924704      0.0      2.70082159      0.0
T011i_      -18.0      0.0      0.0      180.0      1.67587714      0.0      2.63105341      0.0
T011j_      -19.0      0.0      0.0      180.0      1.76130138      0.0      2.55699449      0.0
T012a_      -20.0      0.0      0.0      180.0      1.84545168      0.0      2.47857746      0.0
T012b_      -21.0      0.0      0.0      180.0      1.9282521      0.0      2.39573903      0.0
T012c_      -22.0      0.0      0.0      180.0      2.00961988      0.0      2.30841268      0.0
T012d_      -23.0      0.0      0.0      180.0      2.08946714      0.0      2.2165232      0.0
T012e_      -24.0      0.0      0.0      180.0      2.16772972      0.0      2.11998593      0.0
T012f_      -25.0      0.0      0.0      180.0      2.24431766      0.0      2.01871086      0.0
T012g_      -26.0      0.0      0.0      180.0      2.3191371      0.0      1.91261483      0.0
T012h_      -27.0      0.0      0.0      180.0      2.3921081      0.0      1.8015863      0.0
T012i_      -28.0      0.0      0.0      180.0      2.46313791      0.0      1.68551444      0.0
T012j_      -29.0      0.0      0.0      180.0      2.53212919      0.0      1.56427594      0.0
T013a_      -30.0      0.0      0.0      180.0      2.59898791      0.0      1.43774766      0.0
T013b_      -31.0      0.0      0.0      180.0      2.66361793      0.0      1.30577966      0.0
T013c_      -32.0      0.0      0.0      180.0      2.72589747      0.0      1.1682186      0.0
T013d_      -33.0      0.0      0.0      180.0      2.78572833      0.0      1.02490681      0.0
T013e_      -34.0      0.0      0.0      180.0      2.84300984      0.0      0.87565669      0.0
T013f_      -35.0      0.0      0.0      180.0      2.89759888      0.0      0.72027758      0.0
T013g_      -36.0      0.0      0.0      180.0      2.94938484      0.0      0.55854866      0.0
T013h_      -37.0      0.0      0.0      180.0      2.99823412      0.0      0.39024      0.0
T013i_      -38.0      0.0      0.0      180.0      3.04401079      0.0      0.21511134      0.0
T013j_      -39.0      0.0      0.0      180.0      3.08656157      0.0      0.03287235      0.0
T014a_      -40.0      0.0      0.0      180.0      3.12573177      0.0      0.15676834      180.0
T014b_      -41.0      0.0      0.0      180.0      3.16137784      0.0      0.35414152      180.0
T014c_      -42.0      0.0      0.0      180.0      3.19330552      0.0      0.55959457      180.0
T014d_      -43.0      0.0      0.0      180.0      3.22133495      0.0      0.77353515      180.0
T014e_      -44.0      0.0      0.0      180.0      3.24527809      0.0      0.99639037      180.0
T014f_      -45.0      0.0      0.0      180.0      3.26490983      0.0      1.22860472      180.0
T014g_      -46.0      0.0      0.0      180.0      3.28002108      0.0      1.47071772      180.0
T014h_      -47.0      0.0      0.0      180.0      3.29034675      0.0      1.72329601      180.0
T014i_      -48.0      0.0      0.0      180.0      3.2956272      0.0      1.98695811      180.0
T014j_      -49.0      0.0      0.0      180.0      3.29558669      0.0      2.26240858      180.0
T015a_      -50.0      0.0      0.0      180.0      3.28990323      0.0      2.55041512      180.0
T015b_      -51.0      0.0      0.0      180.0      3.27823466      0.0      2.85182235      180.0
T015c_      -52.0      0.0      0.0      180.0      3.26021992      0.0      3.16759437      180.0
T015d_      -53.0      0.0      0.0      180.0      3.23544266      0.0      3.4987759      180.0
T015e_      -54.0      0.0      0.0      180.0      3.20345831      0.0      3.84655546      180.0
T015f_      -55.0      0.0      0.0      180.0      3.1637611      0.0      4.21226167      180.0
T015g_      -56.0      0.0      0.0      180.0      3.11580417      0.0      4.59739495      180.0
T015h_      -57.0      0.0      0.0      180.0      3.05897876      0.0      5.00364825      180.0
T015i_      -58.0      0.0      0.0      180.0      2.99258683      0.0      5.4329132      180.0
T015j_      -59.0      0.0      0.0      180.0      2.91586092      0.0      5.88737672      180.0
T016a_      -60.0      0.0      0.0      180.0      2.82793022      0.0      6.36952663      180.0
T016b_      -61.0      0.0      0.0      180.0      2.72781166      0.0      6.88221477      180.0
T016c_      -62.0      0.0      0.0      180.0      2.61437715      0.0      7.42871467      180.0
T016d_      -63.0      0.0      0.0      180.0      2.48634136      0.0      8.01282753      180.0
T016e_      -64.0      0.0      0.0      180.0      2.34222518      0.0      8.63899313      180.0
T016f_      -65.0      0.0      0.0      180.0      2.18031577      0.0      9.31241562      180.0
T016g_      -66.0      0.0      0.0      180.0      1.9986136      0.0      10.03921604      180.0
T016h_      -67.0      0.0      0.0      180.0      1.79477888      0.0      10.82670949      180.0
T016i_      -68.0      0.0      0.0      180.0      1.56604656      0.0      11.683661      180.0
T016j_      -69.0      0.0      0.0      180.0      1.30911871      0.0      12.62068266      180.0
T017a_      -70.0      0.0      0.0      180.0      1.02003728      0.0      13.65078391      180.0
T017b_      -71.0      0.0      0.0      180.0      0.69377787      0.0      14.79143523      180.0
T017c_      -72.0      0.0      0.0      180.0      0.3248764      0.0      16.06064681      180.0
T017d_      -73.0      0.0      0.0      180.0      0.09409598      180.0      17.48497294      180.0
T017e_      -74.0      0.0      0.0      180.0      0.57233546      180.0      19.09838375      180.0
T017f_      -75.0      0.0      0.0      180.0      1.12155697      180.0      20.94620793      180.0
T017g_      -76.0      0.0      0.0      0.0      1.75678973      180.0      23.09002386      180.0
T017h_      -77.0      0.0      0.0      0.0      2.49850892      180.0      25.62188263      180.0
T017i_      -78.0      0.0      0.0      0.0      3.37395131      180.0      28.6797238      180.0
T017j_      -79.0      0.0      0.0      0.0      4.42147321      180.0      32.50002678      180.0
T018a_      -80.0      0.0      0.0      180.0      5.69769877      180.0      37.62110058      180.0
T018k_      -80.1      0.0      0.0      180.0      5.83675299      180.0      38.27172078      180.0
T018l_      -80.2      0.0      0.0      180.0      5.97069808      180.0      38.95398992      180.0
T018m_      -80.3      0.0      0.0      180.0      6.09932751      180.0      39.66105653      180.0
T018n_      -80.4      0.0      0.0      180.0      6.22277124      180.0      40.38959826      180.0
T018o_      -80.5      0.0      0.0      180.0      6.34107157      180.0      41.13743136      180.0
T018p_      -80.6      0.0      0.0      180.0      6.45422775      180.0      41.90227187      180.0
T018q_      -80.7      0.0      0.0      180.0      6.56229652      180.0      42.68195097      180.0
T018r_      -80.8      0.0      0.0      180.0      6.66518452      180.0      43.47521551      180.0
T018s_      -80.9      0.0      0.0      180.0      6.76301861      180.0      44.2810192      180.0
T018b_      -81.0      0.0      0.0      180.0      6.85587757      180.0      45.09834921      180.0
T018c_      -82.0      0.0      0.0      180.0      7.50406152      180.0      53.73294022      180.0
T018d_      -83.0      0.0      0.0      180.0      7.63641333      180.0      62.72356133      180.0
T018e_      -84.0      0.0      0.0      180.0      7.22328179      180.0      71.45237106      180.0
T018f_      -85.0      0.0      0.0      180.0      6.19686078      180.0      79.08157156      180.0
T018g_      -86.0      0.0      0.0      180.0      4.86611338      180.0      84.24916976      180.0
T018h_      -87.0      0.0      0.0      180.0      3.599189      180.0      87.80517898      180.0
T018i_      -88.0      0.0      0.0      180.0      2.37608673      180.0      90.18927569      180.0
T018j_      -89.0      0.0      0.0      180.0      1.18084786      180.0      91.5698587      180.0
T019a_      -89.99      0.0      0.0      0.0      0.01179722      180.0      92.03544002      180.0
